<?xml version="1.0" standalone="yes"?>
<parent xmlns="http://example.org"
        xmlns:svg="http://www.w3.org/2000/svg">

   <svg:svg width="25" height="30" style="background-color: white">
      <svg:polygon class="energyColor" points="0,7 25,15 0,23" style="fill:#eaeaea" />
   </svg:svg>

</parent>
