<?xml version="1.0" standalone="yes" ?>
<parent xmlns="http://example.org" xmlns:svg="http://www.w3.org/2000/svg">

  <svg:svg width="25" height="30" style="background-color: white">

    <svg:g width="33" height="38" >
      <svg:polygon class="energyColor" points="0,7 25,15 0,23" style="fill:#eaeaea" />
      <svg:line x1="5" x2="20" y1="29" y2="1" stroke="#eaeaea"  style="stroke-width: 2"></svg:line>
      <svg:polygon class="energyColor" points="13.5, 4.5 20.8,-0.5 21,8" style="fill:#eaeaea" />
    </svg:g>
  </svg:svg>

</parent>
